module github.com/tomiok/weather-monster

go 1.13

require (
	github.com/Microsoft/go-winio v0.4.14 // indirect
	github.com/docker/distribution v2.7.1+incompatible // indirect
	github.com/docker/docker v1.13.1 // indirect
	github.com/docker/go-connections v0.4.0 // indirect
	github.com/docker/go-units v0.4.0 // indirect
	github.com/go-chi/chi v4.0.3+incompatible
	github.com/go-chi/cors v1.0.0
	github.com/go-sql-driver/mysql v1.5.0
	github.com/golang-migrate/migrate v3.5.4+incompatible
	github.com/joho/godotenv v1.3.0
	github.com/opencontainers/go-digest v1.0.0-rc1 // indirect
	go.uber.org/zap v1.13.0
)
